<define-tag pagetitle>DSA-4988-1 libreoffice</define-tag>
<define-tag report_date>2021-10-16</define-tag>
<define-tag secrefs>CVE-2021-25633 CVE-2021-25634</define-tag>
<define-tag packages>libreoffice</define-tag>
<define-tag isvulnerable>yes</define-tag>
<define-tag fixed>yes</define-tag>
<define-tag fixed-section>no</define-tag>

#use wml::debian::security



</dl>
