<define-tag pagetitle>DLA-2537-1 ffmpeg</define-tag>
<define-tag report_date>2021-01-31</define-tag>
<define-tag secrefs>CVE-2019-17539 CVE-2020-35965 Bug#979999</define-tag>
<define-tag packages>ffmpeg</define-tag>
<define-tag isvulnerable>yes</define-tag>
<define-tag fixed>yes</define-tag>
<define-tag fixed-section>no</define-tag>

#use wml::debian::security

