<define-tag pagetitle>DLA-2699-1 ipmitool</define-tag>
<define-tag report_date>2021-6-30</define-tag>
<define-tag secrefs>CVE-2020-5208</define-tag>
<define-tag packages>ipmitool</define-tag>
<define-tag isvulnerable>yes</define-tag>
<define-tag fixed>yes</define-tag>
<define-tag fixed-section>no</define-tag>

#use wml::debian::security

