<define-tag pagetitle>DLA-2714-1 linux-4.19</define-tag>
<define-tag report_date>2021-07-20</define-tag>
<define-tag secrefs>CVE-2020-36311 CVE-2021-3609 CVE-2021-33909 CVE-2021-34693 Bug#990072</define-tag>
<define-tag packages>linux-4.19</define-tag>
<define-tag isvulnerable>yes</define-tag>
<define-tag fixed>yes</define-tag>
<define-tag fixed-section>no</define-tag>

#use wml::debian::security

