<define-tag pagetitle>DLA-2653-1 libxml2</define-tag>
<define-tag report_date>2021-05-10</define-tag>
<define-tag secrefs>CVE-2021-3516 CVE-2021-3517 CVE-2021-3518 CVE-2021-3537</define-tag>
<define-tag packages>libxml2</define-tag>
<define-tag isvulnerable>yes</define-tag>
<define-tag fixed>yes</define-tag>
<define-tag fixed-section>no</define-tag>

#use wml::debian::security

