<define-tag pagetitle>DLA-2685-1 squid3</define-tag>
<define-tag report_date>2021-06-28</define-tag>
<define-tag secrefs>CVE-2021-28651 CVE-2021-28652 CVE-2021-31806 CVE-2021-31807 CVE-2021-31808 CVE-2021-33620</define-tag>
<define-tag packages>squid3</define-tag>
<define-tag isvulnerable>yes</define-tag>
<define-tag fixed>yes</define-tag>
<define-tag fixed-section>no</define-tag>

#use wml::debian::security

