<define-tag pagetitle>DLA-2787-1 redmine</define-tag>
<define-tag report_date>2021-10-19</define-tag>
<define-tag secrefs>CVE-2021-42326</define-tag>
<define-tag packages>redmine</define-tag>
<define-tag isvulnerable>yes</define-tag>
<define-tag fixed>yes</define-tag>
<define-tag fixed-section>no</define-tag>

#use wml::debian::security

