<define-tag pagetitle>DLA-2418-1 libsndfile</define-tag>
<define-tag report_date>2020-10-29</define-tag>
<define-tag secrefs>CVE-2017-6892 CVE-2017-14245 CVE-2017-14246 CVE-2017-14634 CVE-2018-19661 CVE-2018-19662 CVE-2018-19758 CVE-2019-3832</define-tag>
<define-tag packages>libsndfile</define-tag>
<define-tag isvulnerable>yes</define-tag>
<define-tag fixed>yes</define-tag>
<define-tag fixed-section>no</define-tag>

#use wml::debian::security

