<define-tag pagetitle>DLA-2394-1 squid3</define-tag>
<define-tag report_date>2020-10-2</define-tag>
<define-tag secrefs>CVE-2020-15049 CVE-2020-15810 CVE-2020-15811 CVE-2020-24606</define-tag>
<define-tag packages>squid3</define-tag>
<define-tag isvulnerable>yes</define-tag>
<define-tag fixed>yes</define-tag>
<define-tag fixed-section>no</define-tag>

#use wml::debian::security

