<define-tag pagetitle>DLA-1332-1 libvncserver</define-tag>
<define-tag report_date>2018-3-30</define-tag>
<define-tag secrefs>CVE-2018-7225 Bug#894045</define-tag>
<define-tag packages>libvncserver</define-tag>
<define-tag isvulnerable>yes</define-tag>
<define-tag fixed>yes</define-tag>
<define-tag fixed-section>no</define-tag>

#use wml::debian::security

