<define-tag pagetitle>DLA-1555-1 libmspack</define-tag>
<define-tag report_date>2018-10-26</define-tag>
<define-tag secrefs>CVE-2018-18584 CVE-2018-18585</define-tag>
<define-tag packages>libmspack</define-tag>
<define-tag isvulnerable>yes</define-tag>
<define-tag fixed>yes</define-tag>
<define-tag fixed-section>no</define-tag>

#use wml::debian::security

