<define-tag pagetitle>DLA-1611-2 libav</define-tag>
<define-tag report_date>2018-12-21</define-tag>
<define-tag secrefs>CVE-2015-6822 CVE-2015-6823 CVE-2015-6824</define-tag>
<define-tag packages>libav</define-tag>
<define-tag isvulnerable>yes</define-tag>
<define-tag fixed>yes</define-tag>
<define-tag fixed-section>no</define-tag>

#use wml::debian::security

