<define-tag pagetitle>DLA-1592-1 otrs2</define-tag>
<define-tag report_date>2018-11-23</define-tag>
<define-tag secrefs>CVE-2018-19141 CVE-2018-19143</define-tag>
<define-tag packages>otrs2</define-tag>
<define-tag isvulnerable>yes</define-tag>
<define-tag fixed>yes</define-tag>
<define-tag fixed-section>no</define-tag>

#use wml::debian::security

