<define-tag pagetitle>DSA-5047-1 prosody</define-tag>
<define-tag report_date>2022-1-15</define-tag>
<define-tag secrefs>CVE-2022-0217</define-tag>
<define-tag packages>prosody</define-tag>
<define-tag isvulnerable>yes</define-tag>
<define-tag fixed>yes</define-tag>
<define-tag fixed-section>no</define-tag>

#use wml::debian::security



</dl>
