<define-tag pagetitle>DLA-1886-2 openjdk-7</define-tag>
<define-tag report_date>2019-8-23</define-tag>
<define-tag secrefs>Bug#935082 Bug#750400</define-tag>
<define-tag packages>openjdk-7</define-tag>
<define-tag isvulnerable>yes</define-tag>
<define-tag fixed>yes</define-tag>
<define-tag fixed-section>no</define-tag>

#use wml::debian::security

