<define-tag pagetitle>DLA-1762-2 systemd</define-tag>
<define-tag report_date>2019-04-26</define-tag>
<define-tag packages>systemd</define-tag>
<define-tag isvulnerable>yes</define-tag>
<define-tag fixed>yes</define-tag>
<define-tag fixed-section>no</define-tag>

#use wml::debian::security

