<define-tag pagetitle>DLA-1641-1 mxml</define-tag>
<define-tag report_date>2019-1-25</define-tag>
<define-tag secrefs>CVE-2016-4570 CVE-2016-4571 CVE-2018-20004 Bug#825855 Bug#918007</define-tag>
<define-tag packages>mxml</define-tag>
<define-tag isvulnerable>yes</define-tag>
<define-tag fixed>yes</define-tag>
<define-tag fixed-section>no</define-tag>

#use wml::debian::security

