<define-tag pagetitle>DLA-471-1 jansson</define-tag>
<define-tag report_date>2016-5-13</define-tag>
<define-tag secrefs>CVE-2016-4425 Bug#823238</define-tag>
<define-tag packages>jansson</define-tag>
<define-tag isvulnerable>yes</define-tag>
<define-tag fixed>yes</define-tag>
<define-tag fixed-section>no</define-tag>

#use wml::debian::security

